       0byte	   21.24 us		    0.00 MB/s	 0 us	0
       1byte	   21.59 us		    0.05 MB/s	 0 us	0
       2byte	   21.60 us		    0.09 MB/s	 0 us	0
       4byte	   21.62 us		    0.18 MB/s	 0 us	0
       8byte	   21.60 us		    0.37 MB/s	 0 us	0
      16byte	   21.69 us		    0.74 MB/s	 0 us	0
      32byte	   21.70 us		    1.47 MB/s	 0 us	0
      64byte	   21.79 us		    2.94 MB/s	 0 us	0
     128byte	   21.86 us		    5.86 MB/s	 0 us	0
     256byte	   22.18 us		   11.54 MB/s	 0 us	0
     512byte	   22.68 us		   22.58 MB/s	 0 us	0
    1024byte	   23.72 us		   43.17 MB/s	 0 us	0
       0byte	  213.87 us		    0.00 MB/s	 50 us	0
       1byte	  170.62 us		    0.01 MB/s	 50 us	0
       2byte	  174.00 us		    0.01 MB/s	 50 us	0
       4byte	  208.98 us		    0.02 MB/s	 50 us	0
       8byte	  207.98 us		    0.04 MB/s	 50 us	0
      16byte	  192.42 us		    0.08 MB/s	 50 us	0
      32byte	  226.26 us		    0.14 MB/s	 50 us	0
      64byte	  234.50 us		    0.27 MB/s	 50 us	0
     128byte	  211.97 us		    0.60 MB/s	 50 us	0
     256byte	  186.77 us		    1.37 MB/s	 50 us	0
     512byte	  202.67 us		    2.53 MB/s	 50 us	0
    1024byte	  192.98 us		    5.31 MB/s	 50 us	0
       0byte	  314.84 us		    0.00 MB/s	 100 us	0
       1byte	  309.97 us		    0.00 MB/s	 100 us	0
       2byte	  327.76 us		    0.01 MB/s	 100 us	0
       4byte	  322.11 us		    0.01 MB/s	 100 us	0
       8byte	  301.96 us		    0.03 MB/s	 100 us	0
      16byte	  327.58 us		    0.05 MB/s	 100 us	0
      32byte	  326.02 us		    0.10 MB/s	 100 us	0
      64byte	  301.48 us		    0.21 MB/s	 100 us	0
     128byte	  303.80 us		    0.42 MB/s	 100 us	0
     256byte	  291.24 us		    0.88 MB/s	 100 us	0
     512byte	  303.93 us		    1.68 MB/s	 100 us	0
    1024byte	  262.03 us		    3.91 MB/s	 100 us	0
       0byte	  382.67 us		    0.00 MB/s	 150 us	0
       1byte	  306.04 us		    0.00 MB/s	 150 us	0
       2byte	  301.35 us		    0.01 MB/s	 150 us	0
       4byte	  301.77 us		    0.01 MB/s	 150 us	0
       8byte	  303.26 us		    0.03 MB/s	 150 us	0
      16byte	  345.19 us		    0.05 MB/s	 150 us	0
      32byte	  315.42 us		    0.10 MB/s	 150 us	0
      64byte	  322.30 us		    0.20 MB/s	 150 us	0
     128byte	  354.24 us		    0.36 MB/s	 150 us	0
     256byte	  345.93 us		    0.74 MB/s	 150 us	0
     512byte	  312.77 us		    1.64 MB/s	 150 us	0
    1024byte	  303.08 us		    3.38 MB/s	 150 us	0
       0byte	  415.37 us		    0.00 MB/s	 200 us	0
       1byte	  394.09 us		    0.00 MB/s	 200 us	0
       2byte	  359.08 us		    0.01 MB/s	 200 us	0
       4byte	  354.39 us		    0.01 MB/s	 200 us	0
       8byte	  353.83 us		    0.02 MB/s	 200 us	0
      16byte	  389.38 us		    0.04 MB/s	 200 us	0
      32byte	  376.84 us		    0.08 MB/s	 200 us	0
      64byte	  380.65 us		    0.17 MB/s	 200 us	0
     128byte	  416.53 us		    0.31 MB/s	 200 us	0
     256byte	  436.64 us		    0.59 MB/s	 200 us	0
     512byte	  394.45 us		    1.30 MB/s	 200 us	0
    1024byte	  387.61 us		    2.64 MB/s	 200 us	0
       0byte	  487.37 us		    0.00 MB/s	 250 us	0
       1byte	  430.76 us		    0.00 MB/s	 250 us	0
       2byte	  407.31 us		    0.00 MB/s	 250 us	0
       4byte	  418.33 us		    0.01 MB/s	 250 us	0
       8byte	  442.21 us		    0.02 MB/s	 250 us	0
      16byte	  443.04 us		    0.04 MB/s	 250 us	0
      32byte	  433.64 us		    0.07 MB/s	 250 us	0
      64byte	  465.93 us		    0.14 MB/s	 250 us	0
     128byte	  418.77 us		    0.31 MB/s	 250 us	0
     256byte	  450.59 us		    0.57 MB/s	 250 us	0
     512byte	  489.52 us		    1.05 MB/s	 250 us	0
    1024byte	  487.98 us		    2.10 MB/s	 250 us	0
       0byte	  530.57 us		    0.00 MB/s	 300 us	0
       1byte	  460.85 us		    0.00 MB/s	 300 us	0
       2byte	  479.73 us		    0.00 MB/s	 300 us	0
       4byte	  516.13 us		    0.01 MB/s	 300 us	0
       8byte	  533.63 us		    0.01 MB/s	 300 us	0
      16byte	  469.50 us		    0.03 MB/s	 300 us	0
      32byte	  483.36 us		    0.07 MB/s	 300 us	0
      64byte	  529.48 us		    0.12 MB/s	 300 us	0
     128byte	  533.43 us		    0.24 MB/s	 300 us	0
     256byte	  471.98 us		    0.54 MB/s	 300 us	0
     512byte	  468.64 us		    1.09 MB/s	 300 us	0
    1024byte	  529.04 us		    1.94 MB/s	 300 us	0
       0byte	  584.04 us		    0.00 MB/s	 350 us	0
       1byte	  530.47 us		    0.00 MB/s	 350 us	0
       2byte	  530.78 us		    0.00 MB/s	 350 us	0
       4byte	  551.64 us		    0.01 MB/s	 350 us	0
       8byte	  577.28 us		    0.01 MB/s	 350 us	0
      16byte	  559.77 us		    0.03 MB/s	 350 us	0
      32byte	  512.53 us		    0.06 MB/s	 350 us	0
      64byte	  527.52 us		    0.12 MB/s	 350 us	0
     128byte	  528.80 us		    0.24 MB/s	 350 us	0
     256byte	  512.92 us		    0.50 MB/s	 350 us	0
     512byte	  513.38 us		    1.00 MB/s	 350 us	0
    1024byte	  514.59 us		    1.99 MB/s	 350 us	0
       0byte	  603.32 us		    0.00 MB/s	 400 us	0
       1byte	  578.99 us		    0.00 MB/s	 400 us	0
       2byte	  628.09 us		    0.00 MB/s	 400 us	0
       4byte	  625.04 us		    0.01 MB/s	 400 us	0
       8byte	  632.83 us		    0.01 MB/s	 400 us	0
      16byte	  632.93 us		    0.03 MB/s	 400 us	0
      32byte	  633.72 us		    0.05 MB/s	 400 us	0
      64byte	  633.70 us		    0.10 MB/s	 400 us	0
     128byte	  633.14 us		    0.20 MB/s	 400 us	0
     256byte	  634.49 us		    0.40 MB/s	 400 us	0
     512byte	  634.31 us		    0.81 MB/s	 400 us	0
    1024byte	  635.71 us		    1.61 MB/s	 400 us	0
       0byte	  683.36 us		    0.00 MB/s	 450 us	0
       1byte	  656.22 us		    0.00 MB/s	 450 us	0
       2byte	  684.63 us		    0.00 MB/s	 450 us	0
       4byte	  683.42 us		    0.01 MB/s	 450 us	0
       8byte	  664.08 us		    0.01 MB/s	 450 us	0
      16byte	  657.25 us		    0.02 MB/s	 450 us	0
      32byte	  683.76 us		    0.05 MB/s	 450 us	0
      64byte	  682.54 us		    0.09 MB/s	 450 us	0
     128byte	  642.73 us		    0.20 MB/s	 450 us	0
     256byte	  642.83 us		    0.40 MB/s	 450 us	0
     512byte	  644.35 us		    0.79 MB/s	 450 us	0
    1024byte	  687.96 us		    1.49 MB/s	 450 us	0
