     256byte	   24.71 us		   10.36 MB/s	 0 us	0
     256byte	  241.39 us		    1.06 MB/s	 50 us	0
     256byte	  308.03 us		    0.83 MB/s	 100 us	0
     256byte	  373.96 us		    0.68 MB/s	 150 us	0
     256byte	  412.22 us		    0.62 MB/s	 200 us	0
     256byte	  483.07 us		    0.53 MB/s	 250 us	0
     256byte	  496.96 us		    0.52 MB/s	 300 us	0
     256byte	  560.74 us		    0.46 MB/s	 350 us	0
     256byte	  591.48 us		    0.43 MB/s	 400 us	0
     256byte	  624.96 us		    0.41 MB/s	 450 us	0
