    1024byte	   23.72 us		   43.17 MB/s	 0 us	0
    1024byte	  192.98 us		    5.31 MB/s	 50 us	0
    1024byte	  262.03 us		    3.91 MB/s	 100 us	0
    1024byte	  303.08 us		    3.38 MB/s	 150 us	0
    1024byte	  387.61 us		    2.64 MB/s	 200 us	0
    1024byte	  487.98 us		    2.10 MB/s	 250 us	0
    1024byte	  529.04 us		    1.94 MB/s	 300 us	0
    1024byte	  514.59 us		    1.99 MB/s	 350 us	0
    1024byte	  635.71 us		    1.61 MB/s	 400 us	0
    1024byte	  687.96 us		    1.49 MB/s	 450 us	0
